{
  "defaultSeverity": "warning",
  "extends": [
    "tslint:latest",
    "tslint-config-prettier"
  ],
  "linterOptions": {
    "exclude": [
      "node_modules/**"
    ]
  },
  "rules": {
    "indent": [true, "spaces", 2],
    "interface-name": false,
    "ordered-imports": false,
    "object-literal-sort-keys": false,
    "no-consecutive-blank-lines": false,
    "no-submodule-imports": false
  }
}